Guias/Guia 09/.vcd/Guia_0905.vcd
$date
	Sun Sep 29 18:12:27 2024
$end
$version
	Icarus Verilog
$end
$timescale
	1s
$end
$scope module Guia_0905 $end
$var wire 1 ! clock $end
$upscope $end
$scope module Guia_0905 $end
$var wire 1 " p1 $end
$upscope $end
$enddefinitions $end
$comment Show the parameter values. $end
$dumpall
$end
#0
$dumpvars
x"
0!
$end
#12
1"
1!
#16
0"
#24
0!
#36
1"
1!
#40
0"
#48
0!
#60
1"
1!
#64
0"
#72
0!
#84
1"
1!
#88
0"
#96
0!
#108
1"
1!
#112
0"
#120
0!
#132
1"
1!
#136
0"
#144
0!
#156
1"
1!
#160
0"
#168
0!
#180
1"
1!
#184
0"
#192
0!
#204
1"
1!
#208
0"
#216
0!
#228
1"
1!
#232
0"
#240
0!
#252
1"
1!
#256
0"
#264
0!
#276
1"
1!
#280
0"
#288
0!
#300
1"
1!
#304
0"
#312
0!
#324
1"
1!
#328
0"
#336
0!
#348
1"
1!
#352
0"
#360
0!
#372
1"
1!
#376
0"
#384
0!
#396
1"
1!
#400
0"
#408
0!
#420
1"
1!
#424
0"
#432
0!
#444
1"
1!
#448
0"
#456
0!
#468
1"
1!
#472
0"
